Toronto Cycling Traffic and Bikeway Open Data
…
bike_network_data

# A tibble: 1,262 × 28
   `_id` OBJEC…¹ SEGME…² INSTA…³ UPGRA…⁴ PRE_A…⁵ STREE…⁶ FROM_…⁷ TO_ST…⁸ ROADC…⁹
   <int>   <int>   <dbl>   <dbl>   <dbl> <chr>   <chr>   <chr>   <chr>   <chr>  
 1  3787       1       1    2001    2007 Yes     Kilbar… Highbo… Oriole… Collec…
 2  3788       2       2    2001    2009 Yes     Martin… Lake S… Martin… Multi-…
 3  3789       3       3    2001    2011 Yes     Gatine… Givend… Kenned… Multi-…
 4  3790       4       4    2001    2011 Yes     G Ross… Duffer… G Ross… Multi-…
 5  3791       5       5    2001    2012 Yes     Etobic… Etobic… Forty … Multi-…
 6  3792       6       6    2001    2012 Yes     Marie … Waterf… Forty … Multi-…
 7  3793       7       7    2001    2012 Yes     West D… West D… C N R   Multi-…
 8  3794       8       8    2001    2018 Yes     Bloor … Parlia… Prince… Major …
 9  3795       9      11    2001    2017 Yes     Corona… Rememb… Rememb… Multi-…
10  3796      10      13    2001    2014 No      Sherwo… Burke … Bayvie… Multi-…
# … with 1,252 more rows, 18 more variables: CNPCLASS <chr>, SURFACE <chr>,
#   OWNER <chr>, DIR_LOWORDER <chr>, INFRA_LOWORDER <chr>, SEPA_LOWORDER <chr>,
#   SEPB_LOWORDER <chr>, ORIG_LOWORDER_INFRA <chr>, DIR_HIGHORDER <chr>,
#   INFRA_HIGHORDER <chr>, SEPA_HIGHORDER <chr>, SEPB_HIGHORDER <chr>,
#   ORIG_HIGHORDER <chr>, BYLAWED <chr>, LAST_EDIT_DATE <dttm>,
#   UPGRADE_DESCRIPTION <chr>, Shape__Length <dbl>, geometry <chr>, and
#   abbreviated variable names ¹​OBJECTID, ²​SEGMENT_ID, ³​INSTALLED, ⁴​UPGRADED, …
…
